five_period/tb_pipeline.vcd
$date
	Thu May 14 23:44:58 2026
$end
$version
	Icarus Verilog
$end
$timescale
	1ps
$end
$scope module tb_pipeline $end
$var wire 32 ! debug_instruction [31:0] $end
$var wire 32 " debug_pc [31:0] $end
$var wire 32 # debug_reg_write_data [31:0] $end
$var wire 5 $ debug_reg_write_dest [4:0] $end
$var wire 1 % debug_reg_write_en $end
$var reg 1 & clk $end
$var integer 32 ' cycle_count [31:0] $end
$var reg 1 ( rst_n $end
$scope module u_cpu $end
$var wire 1 ) clk $end
$var wire 32 * debug_instruction [31:0] $end
$var wire 32 + debug_pc [31:0] $end
$var wire 32 , debug_reg_write_data [31:0] $end
$var wire 5 - debug_reg_write_dest [4:0] $end
$var wire 1 % debug_reg_write_en $end
$var wire 4 . ex_alu_op [3:0] $end
$var wire 32 / ex_alu_result [31:0] $end
$var wire 1 0 ex_alu_src $end
$var wire 32 1 ex_immediate [31:0] $end
$var wire 1 2 ex_mem_read $end
$var wire 1 3 ex_mem_write $end
$var wire 32 4 ex_pc [31:0] $end
$var wire 32 5 ex_reg_read_data1 [31:0] $end
$var wire 32 6 ex_reg_read_data2 [31:0] $end
$var wire 1 7 ex_reg_write $end
$var wire 5 8 ex_reg_write_dest [4:0] $end
$var wire 5 9 ex_rs1 [4:0] $end
$var wire 5 : ex_rs2 [4:0] $end
$var wire 2 ; forward_a [1:0] $end
$var wire 2 < forward_b [1:0] $end
$var wire 4 = id_alu_op [3:0] $end
$var wire 1 > id_alu_src $end
$var wire 32 ? id_immediate [31:0] $end
$var wire 32 @ id_instruction [31:0] $end
$var wire 1 A id_mem_read $end
$var wire 1 B id_mem_write $end
$var wire 32 C id_pc [31:0] $end
$var wire 32 D id_reg_read_data1 [31:0] $end
$var wire 32 E id_reg_read_data2 [31:0] $end
$var wire 1 F id_reg_write $end
$var wire 5 G id_reg_write_dest [4:0] $end
$var wire 5 H id_rs1 [4:0] $end
$var wire 5 I id_rs2 [4:0] $end
$var wire 32 J if_instruction [31:0] $end
$var wire 32 K if_pc [31:0] $end
$var wire 32 L mem_alu_result [31:0] $end
$var wire 1 M mem_mem_read $end
$var wire 1 N mem_mem_write $end
$var wire 32 O mem_pc [31:0] $end
$var wire 32 P mem_read_data [31:0] $end
$var wire 1 Q mem_reg_write $end
$var wire 32 R mem_reg_write_data_in [31:0] $end
$var wire 5 S mem_reg_write_dest [4:0] $end
$var wire 1 T rst_n $end
$var wire 32 U wb_alu_result [31:0] $end
$var wire 32 V wb_mem_read_data [31:0] $end
$var wire 1 W wb_mem_to_reg $end
$var wire 1 X wb_reg_write $end
$var wire 32 Y wb_reg_write_data [31:0] $end
$var wire 5 Z wb_reg_write_dest [4:0] $end
$scope module u_if_stage $end
$var wire 1 ) clk $end
$var wire 32 [ instruction [31:0] $end
$var wire 32 \ pc_next [31:0] $end
$var wire 1 T rst_n $end
$var integer 32 ] i [31:0] $end
$var reg 32 ^ pc [31:0] $end
$upscope $end
$scope module u_pipeline_if_id $end
$var wire 1 ) clk $end
$var wire 32 _ if_instruction [31:0] $end
$var wire 32 ` if_pc [31:0] $end
$var wire 1 T rst_n $end
$var reg 32 a id_instruction [31:0] $end
$var reg 32 b id_pc [31:0] $end
$upscope $end
$scope module u_id_stage $end
$var wire 1 ) clk $end
$var wire 3 c funct3 [2:0] $end
$var wire 7 d funct7 [6:0] $end
$var wire 5 e id_rs1 [4:0] $end
$var wire 5 f id_rs2 [4:0] $end
$var wire 32 g instruction [31:0] $end
$var wire 7 h opcode [6:0] $end
$var wire 32 i pc [31:0] $end
$var wire 32 j reg_read_data1 [31:0] $end
$var wire 32 k reg_read_data2 [31:0] $end
$var wire 5 l rs1 [4:0] $end
$var wire 5 m rs2 [4:0] $end
$var wire 1 T rst_n $end
$var wire 32 n wb_reg_write_data [31:0] $end
$var wire 5 o wb_reg_write_dest [4:0] $end
$var wire 1 X wb_reg_write_en $end
$var reg 4 p alu_op [3:0] $end
$var reg 1 q alu_src $end
$var integer 32 r i [31:0] $end
$var reg 32 s immediate [31:0] $end
$var reg 1 t mem_read $end
$var reg 1 u mem_write $end
$var reg 1 v reg_write $end
$var reg 5 w reg_write_dest [4:0] $end
$upscope $end
$scope module u_pipeline_id_ex $end
$var wire 1 ) clk $end
$var wire 4 x id_alu_op [3:0] $end
$var wire 1 > id_alu_src $end
$var wire 32 y id_immediate [31:0] $end
$var wire 1 A id_mem_read $end
$var wire 1 B id_mem_write $end
$var wire 32 z id_pc [31:0] $end
$var wire 32 { id_reg_read_data1 [31:0] $end
$var wire 32 | id_reg_read_data2 [31:0] $end
$var wire 1 F id_reg_write $end
$var wire 5 } id_reg_write_dest [4:0] $end
$var wire 5 ~ id_rs1 [4:0] $end
$var wire 5 !" id_rs2 [4:0] $end
$var wire 1 T rst_n $end
$var reg 4 "" ex_alu_op [3:0] $end
$var reg 1 #" ex_alu_src $end
$var reg 32 $" ex_immediate [31:0] $end
$var reg 1 %" ex_mem_read $end
$var reg 1 &" ex_mem_write $end
$var reg 32 '" ex_pc [31:0] $end
$var reg 32 (" ex_reg_read_data1 [31:0] $end
$var reg 32 )" ex_reg_read_data2 [31:0] $end
$var reg 1 *" ex_reg_write $end
$var reg 5 +" ex_reg_write_dest [4:0] $end
$var reg 5 ," ex_rs1 [4:0] $end
$var reg 5 -" ex_rs2 [4:0] $end
$upscope $end
$scope module u_forwarding_unit $end
$var wire 5 ." ex_rs1 [4:0] $end
$var wire 5 /" ex_rs2 [4:0] $end
$var wire 2 0" forward_a [1:0] $end
$var wire 2 1" forward_b [1:0] $end
$var wire 5 2" mem_rd [4:0] $end
$var wire 1 Q mem_reg_write $end
$var wire 5 3" wb_rd [4:0] $end
$var wire 1 X wb_reg_write $end
$upscope $end
$scope module u_ex_stage $end
$var wire 4 4" alu_op [3:0] $end
$var wire 1 0 alu_src $end
$var wire 1 ) clk $end
$var wire 2 5" forward_a [1:0] $end
$var wire 2 6" forward_b [1:0] $end
$var wire 32 7" forward_data_mem [31:0] $end
$var wire 32 8" forward_data_wb [31:0] $end
$var wire 32 9" immediate [31:0] $end
$var wire 32 :" operand_b [31:0] $end
$var wire 32 ;" real_val_a [31:0] $end
$var wire 32 <" real_val_b_pre [31:0] $end
$var wire 32 =" reg_read_data1 [31:0] $end
$var wire 32 >" reg_read_data2 [31:0] $end
$var wire 1 T rst_n $end
$var reg 32 ?" alu_result [31:0] $end
$upscope $end
$scope module u_pipeline_ex_mem $end
$var wire 1 ) clk $end
$var wire 32 @" ex_alu_result [31:0] $end
$var wire 1 2 ex_mem_read $end
$var wire 1 3 ex_mem_write $end
$var wire 32 A" ex_pc [31:0] $end
$var wire 1 7 ex_reg_write $end
$var wire 32 B" ex_reg_write_data2 [31:0] $end
$var wire 5 C" ex_reg_write_dest [4:0] $end
$var wire 1 T rst_n $end
$var reg 32 D" mem_alu_result [31:0] $end
$var reg 1 E" mem_mem_read $end
$var reg 1 F" mem_mem_write $end
$var reg 32 G" mem_pc [31:0] $end
$var reg 1 H" mem_reg_write $end
$var reg 32 I" mem_reg_write_data_in [31:0] $end
$var reg 5 J" mem_reg_write_dest [4:0] $end
$upscope $end
$scope module u_mem_stage $end
$var wire 32 K" alu_result [31:0] $end
$var wire 1 ) clk $end
$var wire 1 M mem_read $end
$var wire 1 N mem_write $end
$var wire 32 L" reg_write_data_in [31:0] $end
$var wire 1 T rst_n $end
$var reg 32 M" read_data [31:0] $end
$upscope $end
$scope module u_pipeline_mem_wb $end
$var wire 1 ) clk $end
$var wire 32 N" mem_alu_result [31:0] $end
$var wire 32 O" mem_read_data [31:0] $end
$var wire 1 Q mem_reg_write $end
$var wire 5 P" mem_reg_write_dest [4:0] $end
$var wire 1 M mem_to_reg $end
$var wire 1 T rst_n $end
$var reg 32 Q" wb_alu_result [31:0] $end
$var reg 1 R" wb_mem_to_reg $end
$var reg 32 S" wb_read_data [31:0] $end
$var reg 1 T" wb_reg_write $end
$var reg 5 U" wb_reg_write_dest [4:0] $end
$upscope $end
$scope module u_wb_stage $end
$var wire 32 V" alu_result [31:0] $end
$var wire 1 ) clk $end
$var wire 32 W" mem_read_data [31:0] $end
$var wire 1 W mem_to_reg $end
$var wire 32 X" reg_write_data [31:0] $end
$var wire 1 T rst_n $end
$upscope $end
$upscope $end
$upscope $end
$enddefinitions $end
#0
$dumpvars
b0 X"
b0 W"
b0 V"
b0 U"
0T"
b0 S"
0R"
b0 Q"
b0 P"
b0 O"
b0 N"
b0 M"
b0 L"
b0 K"
b0 J"
b0 I"
0H"
b0 G"
0F"
0E"
b0 D"
b0 C"
b0 B"
b0 A"
b0 @"
b0 ?"
b0 >"
b0 ="
b0 <"
b0 ;"
b0 :"
b0 9"
b0 8"
b0 7"
b0 6"
b0 5"
b0 4"
b0 3"
b0 2"
b0 1"
b0 0"
b0 /"
b0 ."
b0 -"
b0 ,"
b0 +"
0*"
b0 )"
b0 ("
b0 '"
0&"
0%"
b0 $"
0#"
b0 ""
b0 !"
b0 ~
b0 }
b0 |
b0 {
b0 z
b0 y
b0 x
b0 w
1v
0u
0t
b0 s
b100000 r
1q
b0 p
b0 o
b0 n
b0 m
b0 l
b0 k
b0 j
b0 i
b10011 h
b10011 g
b0 f
b0 e
b0 d
b0 c
b0 b
b10011 a
b0 `
b10100000000000010010011 _
b0 ^
b100000000 ]
bz \
b10100000000000010010011 [
b0 Z
b0 Y
0X
0W
b0 V
b0 U
0T
b0 S
b0 R
0Q
b0 P
b0 O
0N
0M
b0 L
b0 K
b10100000000000010010011 J
b0 I
b0 H
b0 G
1F
b0 E
b0 D
b0 C
0B
0A
b10011 @
b0 ?
1>
b0 =
b0 <
b0 ;
b0 :
b0 9
b0 8
07
b0 6
b0 5
b0 4
03
02
b0 1
00
b0 /
b0 .
b0 -
b0 ,
b0 +
b10100000000000010010011 *
0)
0(
b0 '
0&
0%
b0 $
b0 #
b0 "
b10100000000000010010011 !
$end
#5000
1&
1)
#10000
0&
0)
#15000
b1100001000000100010011 J
b1100001000000100010011 [
b1100001000000100010011 _
b1100001000000100010011 !
b1100001000000100010011 *
b101 m
b101 I
b101 f
b101 !"
b101 s
b101 ?
b101 y
b1 w
b1 G
b1 }
1v
1F
1q
1>
b100 ^
b100 K
b100 `
b100 "
b100 +
b10100000000000010010011 a
b10100000000000010010011 @
b10100000000000010010011 g
1*"
17
1#"
10
b1 '
1&
1)
1(
1T
#20000
0&
0)
#25000
b101 ?"
b101 /
b101 @"
b101 :"
b1 l
b1 H
b1 e
b1 ~
b11 m
b11 I
b11 f
b11 !"
b10 w
b10 G
b10 }
1v
1F
1q
1>
b11 s
b11 ?
b11 y
b101000000000000110010011 J
b101000000000000110010011 [
b101000000000000110010011 _
b101000000000000110010011 !
b101000000000000110010011 *
b10 '
1H"
1Q
b101 -"
b101 :
b101 /"
b1 +"
b1 8
b1 C"
b101 $"
b101 1
b101 9"
b1100001000000100010011 a
b1100001000000100010011 @
b1100001000000100010011 g
b100 b
b100 C
b100 i
b100 z
b1000 ^
b1000 K
b1000 `
b1000 "
b1000 +
1&
1)
#30000
0&
0)
#35000
b101 ;"
b1000 ?"
b1000 /
b1000 @"
b10 ;
b10 0"
b10 5"
b10011 J
b10011 [
b10011 _
b10011 !
b10011 *
b0 l
b0 H
b0 e
b0 ~
b1010 m
b1010 I
b1010 f
b1010 !"
b11 w
b11 G
b11 }
1v
1F
1q
1>
b1010 s
b1010 ?
b1010 y
b11 :"
b1100 ^
b1100 K
b1100 `
b1100 "
b1100 +
b101000000000000110010011 a
b101000000000000110010011 @
b101000000000000110010011 g
b1000 b
b1000 C
b1000 i
b1000 z
b11 -"
b11 :
b11 /"
b1 ,"
b1 9
b1 ."
b10 +"
b10 8
b10 C"
b11 $"
b11 1
b11 9"
b100 '"
b100 4
b100 A"
b1 J"
b1 S
b1 2"
b1 P"
b101 D"
b101 L
b101 7"
b101 K"
b101 N"
1T"
1X
1%
b11 '
1&
1)
#40000
0&
0)
#45000
b0 ;
b0 0"
b0 5"
b1010 ?"
b1010 /
b1010 @"
b101 Y
b101 n
b101 8"
b101 X"
b101 #
b101 ,
b0 ;"
b1010 :"
b0 m
b0 I
b0 f
b0 !"
b0 w
b0 G
b0 }
1v
1F
1q
1>
b0 s
b0 ?
b0 y
b100 '
b1 U"
b1 Z
b1 o
b1 3"
b1 $
b1 -
b101 Q"
b101 U
b101 V"
b10 J"
b10 S
b10 2"
b10 P"
b1000 D"
b1000 L
b1000 7"
b1000 K"
b1000 N"
b100 G"
b100 O
b1010 -"
b1010 :
b1010 /"
b0 ,"
b0 9
b0 ."
b11 +"
b11 8
b11 C"
b1010 $"
b1010 1
b1010 9"
b1000 '"
b1000 4
b1000 A"
b10011 a
b10011 @
b10011 g
b1100 b
b1100 C
b1100 i
b1100 z
b10000 ^
b10000 K
b10000 `
b10000 "
b10000 +
1&
1)
#50000
0&
0)
#55000
b0 ?"
b0 /
b0 @"
b0 :"
b1000 Y
b1000 n
b1000 8"
b1000 X"
b1000 #
b1000 ,
b10100 ^
b10100 K
b10100 `
b10100 "
b10100 +
b10000 b
b10000 C
b10000 i
b10000 z
b0 -"
b0 :
b0 /"
b0 +"
b0 8
b0 C"
b0 $"
b0 1
b0 9"
b1100 '"
b1100 4
b1100 A"
b11 J"
b11 S
b11 2"
b11 P"
b1010 D"
b1010 L
b1010 7"
b1010 K"
b1010 N"
b1000 G"
b1000 O
b10 U"
b10 Z
b10 o
b10 3"
b10 $
b10 -
b1000 Q"
b1000 U
b1000 V"
b101 '
1&
1)
#60000
0&
0)
#65000
b1010 Y
b1010 n
b1010 8"
b1010 X"
b1010 #
b1010 ,
b110 '
b11 U"
b11 Z
b11 o
b11 3"
b11 $
b11 -
b1010 Q"
b1010 U
b1010 V"
b0 J"
b0 S
b0 2"
b0 P"
b0 D"
b0 L
b0 7"
b0 K"
b0 N"
b1100 G"
b1100 O
b10000 '"
b10000 4
b10000 A"
b10100 b
b10100 C
b10100 i
b10100 z
b11000 ^
b11000 K
b11000 `
b11000 "
b11000 +
1&
1)
#70000
0&
0)
#75000
b0 Y
b0 n
b0 8"
b0 X"
b0 #
b0 ,
b11100 ^
b11100 K
b11100 `
b11100 "
b11100 +
b11000 b
b11000 C
b11000 i
b11000 z
b10100 '"
b10100 4
b10100 A"
b10000 G"
b10000 O
b0 U"
b0 Z
b0 o
b0 3"
b0 $
b0 -
b0 Q"
b0 U
b0 V"
b111 '
1&
1)
#80000
0&
0)
#85000
b1000 '
b10100 G"
b10100 O
b11000 '"
b11000 4
b11000 A"
b11100 b
b11100 C
b11100 i
b11100 z
b100000 ^
b100000 K
b100000 `
b100000 "
b100000 +
1&
1)
#90000
0&
0)
#95000
b100100 ^
b100100 K
b100100 `
b100100 "
b100100 +
b100000 b
b100000 C
b100000 i
b100000 z
b11100 '"
b11100 4
b11100 A"
b11000 G"
b11000 O
b1001 '
1&
1)
#100000
0&
0)
#105000
b1010 '
b11100 G"
b11100 O
b100000 '"
b100000 4
b100000 A"
b100100 b
b100100 C
b100100 i
b100100 z
b101000 ^
b101000 K
b101000 `
b101000 "
b101000 +
1&
1)
#110000
0&
0)
#115000
b101100 ^
b101100 K
b101100 `
b101100 "
b101100 +
b101000 b
b101000 C
b101000 i
b101000 z
b100100 '"
b100100 4
b100100 A"
b100000 G"
b100000 O
b1011 '
1&
1)
#120000
0&
0)
#125000
b1100 '
b100100 G"
b100100 O
b101000 '"
b101000 4
b101000 A"
b101100 b
b101100 C
b101100 i
b101100 z
b110000 ^
b110000 K
b110000 `
b110000 "
b110000 +
1&
1)
#130000
0&
0)
#135000
b110100 ^
b110100 K
b110100 `
b110100 "
b110100 +
b110000 b
b110000 C
b110000 i
b110000 z
b101100 '"
b101100 4
b101100 A"
b101000 G"
b101000 O
b1101 '
1&
1)
#140000
0&
0)
#145000
b1110 '
b101100 G"
b101100 O
b110000 '"
b110000 4
b110000 A"
b110100 b
b110100 C
b110100 i
b110100 z
b111000 ^
b111000 K
b111000 `
b111000 "
b111000 +
1&
1)
#150000
0&
0)
#155000
b111100 ^
b111100 K
b111100 `
b111100 "
b111100 +
b111000 b
b111000 C
b111000 i
b111000 z
b110100 '"
b110100 4
b110100 A"
b110000 G"
b110000 O
b1111 '
1&
1)
#160000
0&
0)
#165000
b10000 '
b110100 G"
b110100 O
b111000 '"
b111000 4
b111000 A"
b111100 b
b111100 C
b111100 i
b111100 z
b1000000 ^
b1000000 K
b1000000 `
b1000000 "
b1000000 +
1&
1)
#170000
0&
0)
#175000
b1000100 ^
b1000100 K
b1000100 `
b1000100 "
b1000100 +
b1000000 b
b1000000 C
b1000000 i
b1000000 z
b111100 '"
b111100 4
b111100 A"
b111000 G"
b111000 O
b10001 '
1&
1)
#180000
0&
0)
#185000
b10010 '
b111100 G"
b111100 O
b1000000 '"
b1000000 4
b1000000 A"
b1000100 b
b1000100 C
b1000100 i
b1000100 z
b1001000 ^
b1001000 K
b1001000 `
b1001000 "
b1001000 +
1&
1)
#190000
0&
0)
#195000
b1001100 ^
b1001100 K
b1001100 `
b1001100 "
b1001100 +
b1001000 b
b1001000 C
b1001000 i
b1001000 z
b1000100 '"
b1000100 4
b1000100 A"
b1000000 G"
b1000000 O
b10011 '
1&
1)
#200000
0&
0)
#205000
b10100 '
b1000100 G"
b1000100 O
b1001000 '"
b1001000 4
b1001000 A"
b1001100 b
b1001100 C
b1001100 i
b1001100 z
b1010000 ^
b1010000 K
b1010000 `
b1010000 "
b1010000 +
1&
1)
#210000
0&
0)
#215000
b1010100 ^
b1010100 K
b1010100 `
b1010100 "
b1010100 +
b1010000 b
b1010000 C
b1010000 i
b1010000 z
b1001100 '"
b1001100 4
b1001100 A"
b1001000 G"
b1001000 O
b10101 '
1&
1)
